Biomarkers of ASD
…
The data seems to be heavily skewed to the right. By doing a log transform, the skewness of the data would be lessened, making the patterns easier to analyze as most models assume constant variance.

Task 2

# A tibble: 154 × 2
   group total_outliers
   <chr>          <dbl>
 1 ASD                9
 2 ASD               10
 3 ASD               12
 4 ASD               17
 5 ASD                4
 6 ASD               10
 7 ASD                6
 8 ASD                6
 9 ASD              126
10 ASD               10
# ℹ 144 more rows
…
# A tibble: 4 × 3
  .metric     .estimator .estimate
  <chr>       <chr>          <dbl>
1 sensitivity binary         0.75 
2 specificity binary         0.733
3 accuracy    binary         0.742
4 roc_auc     binary         0.763

By only applying the selection methods to training dataset, there are only three core proteins which are “DERM”, “TGF-b R III”, “EPHB2”. We are able to get a similar sensitivity, specificity, accuracy and roc_auc values which are around 0.7.

    ASD TD class.error
ASD  48 28   0.3684211
TD   17 61   0.2179487

# A tibble: 76 × 1,319
   group  ados    CHIP  CEBPB     NSE   PIAS4 `IL-10 Ra`   STAT3    IRF1 `c-Jun`
   <chr> <dbl>   <dbl>  <dbl>   <dbl>   <dbl>      <dbl>   <dbl>   <dbl>   <dbl>
 1 ASD       8  0.335   0.520 -0.554   0.650     -0.358   0.305  -0.484    0.309
 2 ASD      21 -0.0715  1.01   3       1.28      -0.133   1.13    0.253    0.408
 3 ASD      12 -0.406  -0.531 -0.0592  1.13       0.554  -0.334   0.287   -0.845
 4 ASD      20 -0.102  -0.251  1.47    0.0773    -0.705   0.893   2.61    -0.372
 5 ASD      22 -0.395  -0.536  0.0410 -0.299     -0.830   0.899   1.01    -0.843
 6 ASD      17 -0.126   1.27  -0.892   0.239     -0.344   0.216   0.211    0.221
 7 ASD      15  0.486   0.748 -1.09    0.462      0.570  -0.0682  1.01     1.21 
 8 ASD      10 -0.990  -1.10   0.231  -0.885     -0.151   0.0307 -0.0346  -0.891
 9 ASD      22 -0.108   3      2.32    3          2.76    1.70    0.209    3    
10 ASD      17  0.485  -0.234 -0.697  -0.286      0.0331  1.01   -0.248   -0.293
# ℹ 66 more rows
# ℹ 1,309 more variables: `Mcl-1` <dbl>, OAS1 <dbl>, `c-Myc` <dbl>,
#   SMAD3 <dbl>, SMAD2 <dbl>, `IL-23` <dbl>, PDGFRA <dbl>, `IL-12` <dbl>,
#   STAT1 <dbl>, STAT6 <dbl>, LRRK2 <dbl>, Osteocalcin <dbl>, `IL-5` <dbl>,
#   GPDA <dbl>, IgA <dbl>, LPPL <dbl>, HEMK2 <dbl>, PDXK <dbl>, TLR4 <dbl>,
#   REG4 <dbl>, `HSP 27` <dbl>, `YKL-40` <dbl>, `Alpha enolase` <dbl>,
#   `Apo L1` <dbl>, CD38 <dbl>, CD59 <dbl>, FABPL <dbl>, `GDF-11` <dbl>, …
…
